{
  "project_info": {
    "project_number": "900975995535",
    "firebase_url": "https://gpstracker-cd21a.firebaseio.com",
    "project_id": "gpstracker-cd21a",
    "storage_bucket": "gpstracker-cd21a.appspot.com"
  },
  "client": [
    {
      "client_info": {
        "mobilesdk_app_id": "1:900975995535:android:a75dc3a122fb3a85da9efa",
        "android_client_info": {
          "package_name": "com.edson.gpstracker"
        }
      },
      "oauth_client": [
        {
          "client_id": "900975995535-q34gc5obnub1cecd09ido8lrjjs51d1s.apps.googleusercontent.com",
          "client_type": 1,
          "android_info": {
            "package_name": "com.edson.gpstracker",
            "certificate_hash": "6b11757bd8a763dcb8778033928e11a671de0cfe"
          }
        },
        {
          "client_id": "900975995535-c53p1gojogk8ou0995i36e9134caom57.apps.googleusercontent.com",
          "client_type": 3
        }
      ],
      "api_key": [
        {
          "current_key": "AIzaSyAfdKGTnhvYSIgQPrOeWJTlnDj_TQVxYFo"
        }
      ],
      "services": {
        "appinvite_service": {
          "other_platform_oauth_client": [
            {
              "client_id": "900975995535-c53p1gojogk8ou0995i36e9134caom57.apps.googleusercontent.com",
              "client_type": 3
            }
          ]
        }
      }
    }
  ],
  "configuration_version": "1"
}